Modeling
…
Split the Data

We’ll split the data into a training and test set (70/30).

First, we’ll use the initial_split(), training(), and testing() functions to create the splits:

set.seed(10)
#create split with 75% data in training set and 25% in test set, and name the sets
diabetes_split <- initial_split(data3, prop = 0.7)
diabetes_train <- training(diabetes_split)
diabetes_test <- testing(diabetes_split)
diabetes_train

# A tibble: 177,576 × 22
   diabetesBin highBP highChol cholCheck   bmi smoker stroke heartProb physAct
   <fct>       <fct>  <fct>    <fct>     <int> <fct>  <fct>  <fct>     <fct>  
 1 No          No     No       Yes          24 No     No     No        Yes    
 2 No          No     No       Yes          18 No     No     No        Yes    
 3 No          No     Yes      Yes          23 Yes    No     No        Yes    
 4 No          No     No       Yes          30 Yes    No     No        No     
 5 No          No     No       Yes          25 No     No     No        No     
 6 No          No     Yes      Yes          26 No     No     No        Yes    
 7 No          No     No       Yes          20 No     No     No        Yes    
 8 No          Yes    Yes      Yes          22 Yes    No     Yes       Yes    
 9 No          No     Yes      Yes          26 Yes    No     No        Yes    
10 Yes         Yes    No       Yes          23 No     No     No        No     
# ℹ 177,566 more rows
# ℹ 13 more variables: fruits <fct>, veg <fct>, etOH <fct>, hlthCare <fct>,
#   noDoc <fct>, genHlth <fct>, mentHlth <int>, physHlth <int>, diffWalk <fct>,
#   sex <fct>, age <fct>, edu <fct>, income <fct>
…
